…
# Non-Communicable Disease Burden (NCD)

    ## Rows: 8010 Columns: 4
    ## ── Column specification ────────────────────────────────────────────────────────
    ## Delimiter: ","
    ## chr (2): Entity, Code
    ## dbl (2): Year, DALYs (Disability-Adjusted Life Years) - Non-communicable dis...
    ## 
    ## ℹ Use `spec()` to retrieve the full column specification for this data.
    ## ℹ Specify the column types or set `show_col_types = FALSE` to quiet this message.

    ## # A tibble: 8,010 × 4
    ##    Entity      Code   Year DALYs (Disability-Adjusted Life Years) - Non-commun…¹
    ##    <chr>       <chr> <dbl>                                                 <dbl>
    ##  1 Afghanistan AFG    1990                                                41789.
    ##  2 Afghanistan AFG    1991                                                40756.
    ##  3 Afghanistan AFG    1992                                                40117.
    ##  4 Afghanistan AFG    1993                                                40402.
    ##  5 Afghanistan AFG    1994                                                40826.
    ##  6 Afghanistan AFG    1995                                                40780.
    ##  7 Afghanistan AFG    1996                                                40851.
    ##  8 Afghanistan AFG    1997                                                41017.
    ##  9 Afghanistan AFG    1998                                                41134.
    ## 10 Afghanistan AFG    1999                                                41298.
    ## # ℹ 8,000 more rows
    ## # ℹ abbreviated name:
    ## #   ¹​`DALYs (Disability-Adjusted Life Years) - Non-communicable diseases - Sex: Both - Age: Age-standardized (Rate)`

## Table of Estimates for NCD Burden Over Time

    ## <pillar>
    ## <tibble[,4]>                 
    ## # A tibble: 90 × 4           
    ##    country code   year   daly
    ##    <chr>   <chr> <dbl>  <dbl>
    ##  1 Malawi  MWI    1990 26111.
    ##  2 Malawi  MWI    1991 25959.
    ##  3 Malawi  MWI    1992 25917.
    ##  4 Malawi  MWI    1993 25907.
    ##  5 Malawi  MWI    1994 26069.
    ##  6 Malawi  MWI    1995 26047.
    ##  7 Malawi  MWI    1996 25975.
    ##  8 Malawi  MWI    1997 25978.
    ##  9 Malawi  MWI    1998 26173.
    ## 10 Malawi  MWI    1999 26245.
    ## # ℹ 80 more rows

    ## # A tibble: 90 × 5
    ##    code   year Malawi Zambia Zimbabwe
    ##    <chr> <dbl>  <dbl>  <dbl>    <dbl>
    ##  1 MWI    1990 26111.     NA       NA
    ##  2 MWI    1991 25959.     NA       NA
    ##  3 MWI    1992 25917.     NA       NA
    ##  4 MWI    1993 25907.     NA       NA
    ##  5 MWI    1994 26069.     NA       NA
    ##  6 MWI    1995 26047.     NA       NA
    ##  7 MWI    1996 25975.     NA       NA
    ##  8 MWI    1997 25978.     NA       NA
    ##  9 MWI    1998 26173.     NA       NA
    ## 10 MWI    1999 26245.     NA       NA
    ## # ℹ 80 more rows
…
